{
  "result": [
    {
      "fileName": "fisher_test.jpg",
      "uploadUrl": "https://sla-dev.s3.ap-southeast-1.amazonaws.com/a88da89f-c8e1-424a-993c-e2b7b2eb40c6.jpg?X-Amz-Expires=1800&x-amz-acl=public-read&X-Amz-Algorithm=AWS4-HMAC-SHA256&X-Amz-Credential=AKIAIO2KMQ2PN3JW3OUA/20190313/ap-southeast-1/s3/aws4_request&X-Amz-Date=20190313T015720Z&X-Amz-SignedHeaders=host&X-Amz-Signature=6737cf8fe83f499fe4bb4e4a30ef84631ac51aa1009b8ba9db1682ed4b91a14a"
    }
  ]
}
