{
  "result": {
    "properties": [
      {
        "propertyId": "1",
        "propertyName": "Property1"
      },
      {
        "propertyId": "2",
        "propertyName": "Property2"
      },
      {
        "propertyId": "3",
        "propertyName": "Property3"
      }
    ],
    "permissions": [
      "NewsCategory_View",
      "NewsCategory_Edit",
      "News_View",
      "News_Edit",
      "FacilityCategory_View",
      "FacilityCategory_Edit",
      "Facility_View",
      "Facility_Edit",
      "FacilityBooking_View",
      "FacilityBooking_Edit",
      "Resident_View",
      "Resident_Edit"
    ]
  }
}
