{
  "port": 8090,
  "headers": {
    "Access-Control-Allow-Origin": "http://localhost:4200",
    "Access-Control-Allow-Headers": "authorization,content-type,impersonated,Channel-No,token,languageCode,Abp.TenantId",
    "Access-Control-Allow-Methods": "GET,POST,PUT,DELETE",
    "Access-Control-Max-Age": "3600",
    "Access-Control-Allow-Credentials": true
  },
  "routes": {
    "/api/services/admin": {
      "/news": {
        "options": 204,
        "get": "./data/news-announcements/get.js",
        "post": "./data/default.json",
        "/categories": {
          "options": 204,
          "get": "./data/news-announcements/categories/get.js",
          "post": "./data/default.json",
          "/names": {
            "options": 204,
            "get": "./data/news-announcements/categories/names/get.json"
          },
          "/:id": {
            "options": 204,
            "put": "./data/default.json",
            "delete": "./data/default.json"
          }
        },
        "/:id": {
          "options": 204,
          "get": "./data/news-announcements/detail/get.json",
          "put": "./data/default.json",
          "delete": "./data/default.json",
          "/pin": {
            "options": 204,
            "put": "./data/default.json"
          }
        }
      },
      "/facilities": {
        "options": 204,
        "get": "./data/facilities/get.js",
        "post": "./data/default.json",
        "/categories": {
          "options": 204,
          "get": "./data/facilities/categories/get.js",
          "post": "./data/default.json",
          "/names": {
            "options": 204,
            "get": "./data/facilities/categories/names/get.json"
          },
          "/:id": {
            "options": 204,
            "get": "./data/facilities/categories/detail/get.json",
            "put": "./data/default.json",
            "/status": {
              "options": 204,
              "put": "./data/default.json"
            }
          }
        },
        "/bookings": {
          "options": 204,
          "get": "./data/facilities/bookings/get.js",
          "/:id": {
            "options": 204,
            "get": "./data/facilities/bookings/detail/get.json",
            "/approve": {
              "options": 204,
              "put": "./data/default.json"
            },
            "/reject": {
              "options": 204,
              "put": "./data/default.json"
            }
          }
        },
        "/:id": {
          "options": 204,
          "get": "./data/facilities/detail/get.js",
          "put": "./data/default.json",
          "/status": {
            "options": 204,
            "put": "./data/default.json"
          }
        }
      },
      "/user": {
        "options": 204,
        "get": "./data/user/get.json"
      },
      "/media": {
        "/generate-upload-urls": {
          "options": 204,
          "post": "./data/media/post.json"
        }
      }
    }
  }
}
